<!-- Generated by IcoMoon.io -->
<svg version="1.1" xmlns="http://www.w3.org/2000/svg" width="34" height="32" viewBox="0 0 34 32">
<title>search</title>
<path fill="#1b365d" d="M33.042 28.971l-8.242-7.851c1.758-2.154 2.824-4.934 2.824-7.963 0-3.668-1.563-6.972-4.059-9.281l-0.008-0.008c-2.515-2.395-5.926-3.869-9.682-3.869-0.027 0-0.054 0-0.081 0l0.004-0c-0.026-0-0.056-0-0.087-0-3.752 0-7.16 1.471-9.679 3.868l0.006-0.006c-2.489 2.331-4.041 5.637-4.041 9.306s1.551 6.976 4.034 9.3l0.007 0.007c2.513 2.391 5.921 3.863 9.673 3.863 0.031 0 0.061-0 0.092-0l-0.005 0c0.027 0 0.060 0 0.092 0 3.097 0 5.96-1.005 8.28-2.706l-0.039 0.027 8.286 7.814c0.339 0.326 0.801 0.527 1.31 0.527 0.009 0 0.017-0 0.026-0h-0.001c0.517-0.002 0.986-0.202 1.337-0.528l-0.001 0.001c0.316-0.314 0.511-0.749 0.511-1.229 0-0.503-0.214-0.956-0.556-1.272l-0.001-0.001zM13.842 22.782c-0.012 0-0.027 0-0.041 0-2.747 0-5.244-1.069-7.098-2.815l0.005 0.005c-1.807-1.709-2.931-4.123-2.931-6.8s1.124-5.091 2.927-6.796l0.004-0.004c1.864-1.741 4.375-2.809 7.135-2.809s5.271 1.069 7.141 2.815l-0.006-0.006c1.816 1.681 2.949 4.076 2.949 6.737 0 0.021-0 0.041-0 0.061l0-0.003c-0.011 2.679-1.139 5.093-2.941 6.801l-0.004 0.004c-1.822 1.74-4.295 2.81-7.019 2.81-0.041 0-0.082-0-0.124-0.001l0.006 0z"></path>
</svg>
